…
    ## [1] 12

12 La Quinta locations in NC

``` r
dn_lq_nc <- full_join(dn_nc, lq_nc, by = "state")
dn_lq_nc
```

    ## # A tibble: 336 × 11
    ##    address.x    city.x state zip.x longitude.x latitude.x address.y city.y zip.y
    ##    <chr>        <chr>  <chr> <chr>       <dbl>      <dbl> <chr>     <chr>  <chr>
    ##  1 1 Regent Pa… Ashev… NC    28806       -82.6       35.6 165 Hwy … "\nBo… 28607
    ##  2 1 Regent Pa… Ashev… NC    28806       -82.6       35.6 3127 Slo… "\nCh… 28208
    ##  3 1 Regent Pa… Ashev… NC    28806       -82.6       35.6 4900 Sou… "\nCh… 28217
    ##  4 1 Regent Pa… Ashev… NC    28806       -82.6       35.6 4414 Dur… "\nDu… 27707
    ##  5 1 Regent Pa… Ashev… NC    28806       -82.6       35.6 1910 Wes… "\nDu… 27713
    ##  6 1 Regent Pa… Ashev… NC    28806       -82.6       35.6 1201 Lan… "\nGr… 27407
    ##  7 1 Regent Pa… Ashev… NC    28806       -82.6       35.6 1607 Fai… "\nCo… 28613
    ##  8 1 Regent Pa… Ashev… NC    28806       -82.6       35.6 191 Cres… "\nCa… 27518
    ##  9 1 Regent Pa… Ashev… NC    28806       -82.6       35.6 2211 Sum… "\nRa… 27612
    ## 10 1 Regent Pa… Ashev… NC    28806       -82.6       35.6 1001 Aer… "\nMo… 27560
    ## # … with 326 more rows, and 2 more variables: longitude.y <dbl>,
    ## #   latitude.y <dbl>

336 observations, the variables are Address, city, zip, longitude, and
latitude of both x and y (separately) and state

``` r
dn_lq_nc <- dn_lq_nc %>%
  mutate(dn_lq_nc, distance = haversine(longitude.x, latitude.x, longitude.y, latitude.y, round = 3))
dn_lq_nc
```

    ## # A tibble: 336 × 12
    ##    address.x    city.x state zip.x longitude.x latitude.x address.y city.y zip.y
    ##    <chr>        <chr>  <chr> <chr>       <dbl>      <dbl> <chr>     <chr>  <chr>
    ##  1 1 Regent Pa… Ashev… NC    28806       -82.6       35.6 165 Hwy … "\nBo… 28607
    ##  2 1 Regent Pa… Ashev… NC    28806       -82.6       35.6 3127 Slo… "\nCh… 28208
    ##  3 1 Regent Pa… Ashev… NC    28806       -82.6       35.6 4900 Sou… "\nCh… 28217
    ##  4 1 Regent Pa… Ashev… NC    28806       -82.6       35.6 4414 Dur… "\nDu… 27707
    ##  5 1 Regent Pa… Ashev… NC    28806       -82.6       35.6 1910 Wes… "\nDu… 27713
    ##  6 1 Regent Pa… Ashev… NC    28806       -82.6       35.6 1201 Lan… "\nGr… 27407
    ##  7 1 Regent Pa… Ashev… NC    28806       -82.6       35.6 1607 Fai… "\nCo… 28613
    ##  8 1 Regent Pa… Ashev… NC    28806       -82.6       35.6 191 Cres… "\nCa… 27518
    ##  9 1 Regent Pa… Ashev… NC    28806       -82.6       35.6 2211 Sum… "\nRa… 27612
    ## 10 1 Regent Pa… Ashev… NC    28806       -82.6       35.6 1001 Aer… "\nMo… 27560
    ## # … with 326 more rows, and 3 more variables: longitude.y <dbl>,
    ## #   latitude.y <dbl>, distance <dbl>

``` r
dn_lq_nc_mindist <- dn_lq_nc %>%
  group_by(address.x) %>%
  summarize(closest = min(distance))
dn_lq_nc_mindist
```

    ## # A tibble: 28 × 2
    ##    address.x                 closest
    ##    <chr>                       <dbl>
    ##  1 1 Regent Park Boulevard     108. 
    ##  2 101 Wintergreen Dr          120. 
    ##  3 103 Sedgehill Dr             26.7
    ##  4 1043 Jimmie Kerr Road        36.1
    ##  5 1201 S College Road         188. 
    ##  6 1209 Burkemount Avenue       39.1
    ##  7 1493 Us Hwy 74-A Bypass      70.1
    ##  8 1524 Dabney Dr               59.5
    ##  9 1550 Four Seasons           115. 
    ## 10 1800 Princeton-Kenly Road    55.9
    ## # … with 18 more rows
…
    ## [1] 237

237 La Quinta locations in TX

``` r
dn_lq_tx <- full_join(dn_tx, lq_tx, by = "state")
dn_lq_tx
```

    ## # A tibble: 47,400 × 11
    ##    address.x    city.x state zip.x longitude.x latitude.x address.y city.y zip.y
    ##    <chr>        <chr>  <chr> <chr>       <dbl>      <dbl> <chr>     <chr>  <chr>
    ##  1 120 East I-… Abile… TX    79601       -99.6       32.4 3018 Cat… "\nAb… 79606
    ##  2 120 East I-… Abile… TX    79601       -99.6       32.4 3501 Wes… "\nAb… 79601
    ##  3 120 East I-… Abile… TX    79601       -99.6       32.4 14925 La… "\nAd… 75254
    ##  4 120 East I-… Abile… TX    79601       -99.6       32.4 909 East… "\nAl… 78516
    ##  5 120 East I-… Abile… TX    79601       -99.6       32.4 2400 Eas… "\nAl… 78332
    ##  6 120 East I-… Abile… TX    79601       -99.6       32.4 1220 Nor… "\nAl… 75013
    ##  7 120 East I-… Abile… TX    79601       -99.6       32.4 1165 Hwy… "\nAl… 76009
    ##  8 120 East I-… Abile… TX    79601       -99.6       32.4 880 Sout… "\nAl… 77511
    ##  9 120 East I-… Abile… TX    79601       -99.6       32.4 1708 Int… "\nAm… 79103
    ## 10 120 East I-… Abile… TX    79601       -99.6       32.4 9305 Eas… "\nAm… 79118
    ## # … with 47,390 more rows, and 2 more variables: longitude.y <dbl>,
    ## #   latitude.y <dbl>

47,400 observations, the variables are Address, city, zip, longitude,
and latitude of both x and y (separately) and state

``` r
dn_lq_tx <- dn_lq_tx %>%
  mutate(dn_lq_tx, distance = haversine(longitude.x, latitude.x, longitude.y, latitude.y, round = 3))
dn_lq_tx
```

    ## # A tibble: 47,400 × 12
    ##    address.x    city.x state zip.x longitude.x latitude.x address.y city.y zip.y
    ##    <chr>        <chr>  <chr> <chr>       <dbl>      <dbl> <chr>     <chr>  <chr>
    ##  1 120 East I-… Abile… TX    79601       -99.6       32.4 3018 Cat… "\nAb… 79606
    ##  2 120 East I-… Abile… TX    79601       -99.6       32.4 3501 Wes… "\nAb… 79601
    ##  3 120 East I-… Abile… TX    79601       -99.6       32.4 14925 La… "\nAd… 75254
    ##  4 120 East I-… Abile… TX    79601       -99.6       32.4 909 East… "\nAl… 78516
    ##  5 120 East I-… Abile… TX    79601       -99.6       32.4 2400 Eas… "\nAl… 78332
    ##  6 120 East I-… Abile… TX    79601       -99.6       32.4 1220 Nor… "\nAl… 75013
    ##  7 120 East I-… Abile… TX    79601       -99.6       32.4 1165 Hwy… "\nAl… 76009
    ##  8 120 East I-… Abile… TX    79601       -99.6       32.4 880 Sout… "\nAl… 77511
    ##  9 120 East I-… Abile… TX    79601       -99.6       32.4 1708 Int… "\nAm… 79103
    ## 10 120 East I-… Abile… TX    79601       -99.6       32.4 9305 Eas… "\nAm… 79118
    ## # … with 47,390 more rows, and 3 more variables: longitude.y <dbl>,
    ## #   latitude.y <dbl>, distance <dbl>

``` r
dn_lq_tx_mindist <- dn_lq_tx %>%
  group_by(address.x) %>%
  summarize(closest = min(distance))
dn_lq_tx_mindist
```

    ## # A tibble: 200 × 2
    ##    address.x             closest
    ##    <chr>                   <dbl>
    ##  1 100 Cottonwood         33.6  
    ##  2 100 E Pinehurst         1.39 
    ##  3 100 Us Highway 79 S    33.9  
    ##  4 101 N Fm 707           10.3  
    ##  5 1011 Beltway Parkway   14.0  
    ##  6 1015 Spur 350 West      1.74 
    ##  7 1015 West Main St       1.10 
    ##  8 10367 Highway 59       37.6  
    ##  9 10433 N Central Expwy   0.618
    ## 10 105 W 42nd St           6.88 
    ## # … with 190 more rows
…
    ## [1] 10

10 La Quinta locations in PA

``` r
dn_lq_pa <- full_join(dn_pa, lq_pa, by = "state")
dn_lq_pa
```

    ## # A tibble: 400 × 11
    ##    address.x    city.x state zip.x longitude.x latitude.x address.y city.y zip.y
    ##    <chr>        <chr>  <chr> <chr>       <dbl>      <dbl> <chr>     <chr>  <chr>
    ##  1 1871 Catasa… Allen… PA    18109       -75.4       40.6 199 Walk… "\nCh… 17201
    ##  2 1871 Catasa… Allen… PA    18109       -75.4       40.6 7820 Per… "\nEr… 16509
    ##  3 1871 Catasa… Allen… PA    18109       -75.4       40.6 990 Eise… "\nHa… 17111
    ##  4 1871 Catasa… Allen… PA    18109       -75.4       40.6 265 N. H… "\nHa… 17112
    ##  5 1871 Catasa… Allen… PA    18109       -75.4       40.6 25 Eastb… "\nRo… 17572
    ##  6 1871 Catasa… Allen… PA    18109       -75.4       40.6 350 Bent… "\nMe… 17050
    ##  7 1871 Catasa… Allen… PA    18109       -75.4       40.6 130 Lime… "\nNe… 17070
    ##  8 1871 Catasa… Allen… PA    18109       -75.4       40.6 53 Indus… "\nEs… 19029
    ##  9 1871 Catasa… Allen… PA    18109       -75.4       40.6 8507 Uni… "\nMo… 15108
    ## 10 1871 Catasa… Allen… PA    18109       -75.4       40.6 1405 Ken… "\nYo… 17408
    ## # … with 390 more rows, and 2 more variables: longitude.y <dbl>,
    ## #   latitude.y <dbl>

400 observations, the variables are Address, city, zip, longitude, and
latitude of both x and y (separately) and state

``` r
dn_lq_pa <- dn_lq_pa %>%
  mutate(dn_lq_pa, distance = haversine(longitude.x, latitude.x, longitude.y, latitude.y, round = 3))
dn_lq_pa
```

    ## # A tibble: 400 × 12
    ##    address.x    city.x state zip.x longitude.x latitude.x address.y city.y zip.y
    ##    <chr>        <chr>  <chr> <chr>       <dbl>      <dbl> <chr>     <chr>  <chr>
    ##  1 1871 Catasa… Allen… PA    18109       -75.4       40.6 199 Walk… "\nCh… 17201
    ##  2 1871 Catasa… Allen… PA    18109       -75.4       40.6 7820 Per… "\nEr… 16509
    ##  3 1871 Catasa… Allen… PA    18109       -75.4       40.6 990 Eise… "\nHa… 17111
    ##  4 1871 Catasa… Allen… PA    18109       -75.4       40.6 265 N. H… "\nHa… 17112
    ##  5 1871 Catasa… Allen… PA    18109       -75.4       40.6 25 Eastb… "\nRo… 17572
    ##  6 1871 Catasa… Allen… PA    18109       -75.4       40.6 350 Bent… "\nMe… 17050
    ##  7 1871 Catasa… Allen… PA    18109       -75.4       40.6 130 Lime… "\nNe… 17070
    ##  8 1871 Catasa… Allen… PA    18109       -75.4       40.6 53 Indus… "\nEs… 19029
    ##  9 1871 Catasa… Allen… PA    18109       -75.4       40.6 8507 Uni… "\nMo… 15108
    ## 10 1871 Catasa… Allen… PA    18109       -75.4       40.6 1405 Ken… "\nYo… 17408
    ## # … with 390 more rows, and 3 more variables: longitude.y <dbl>,
    ## #   latitude.y <dbl>, distance <dbl>

``` r
dn_lq_pa_mindist <- dn_lq_pa %>%
  group_by(address.x) %>%
  summarize(closest = min(distance))
dn_lq_pa_mindist
```

    ## # A tibble: 40 × 2
    ##    address.x            closest
    ##    <chr>                  <dbl>
    ##  1 1071 Wayne Avenue      2.83 
    ##  2 1199 Louck Road        0.509
    ##  3 122 Fitz Henry Road   55.9  
    ##  4 131 Papermill Rd      78.7  
    ##  5 1346 Old Freedom Rd   22.2  
    ##  6 1395 W Chestnut St    38.4  
    ##  7 1501 Harrisburg Pike   8.26 
    ##  8 1623 Oliver Road     185.   
    ##  9 16414 Lincoln Hwy     52.3  
    ## 10 1716 E 3rd St        102.   
    ## # … with 30 more rows
…
